%YAML 1.1
%TAG !u! tag:unity3d.com,2011:
--- !u!74 &7400000
AnimationClip:
  m_ObjectHideFlags: 0
  m_CorrespondingSourceObject: {fileID: 0}
  m_PrefabInstance: {fileID: 0}
  m_PrefabAsset: {fileID: 0}
  m_Name: MissileExplosion
  serializedVersion: 6
  m_Legacy: 0
  m_Compressed: 0
  m_UseHighQualityCurve: 1
  m_RotationCurves: []
  m_CompressedRotationCurves: []
  m_EulerCurves: []
  m_PositionCurves: []
  m_ScaleCurves: []
  m_FloatCurves: []
  m_PPtrCurves:
  - curve:
    - time: 0
      value: {fileID: 5986030973748356752, guid: 67b6a7401a2e2a74391b9b170a4bb726,
        type: 3}
    - time: 0.071428575
      value: {fileID: -5600206312213581617, guid: 67b6a7401a2e2a74391b9b170a4bb726,
        type: 3}
    - time: 0.14285715
      value: {fileID: 3815954189206336483, guid: 67b6a7401a2e2a74391b9b170a4bb726,
        type: 3}
    - time: 0.21428572
      value: {fileID: -3690502768834906923, guid: 67b6a7401a2e2a74391b9b170a4bb726,
        type: 3}
    - time: 0.2857143
      value: {fileID: -49130668184793455, guid: 67b6a7401a2e2a74391b9b170a4bb726,
        type: 3}
    - time: 0.35714287
      value: {fileID: -2330519403281856691, guid: 67b6a7401a2e2a74391b9b170a4bb726,
        type: 3}
    - time: 0.42857143
      value: {fileID: -4796932125324312052, guid: 67b6a7401a2e2a74391b9b170a4bb726,
        type: 3}
    - time: 0.5
      value: {fileID: 4348620978117878488, guid: 67b6a7401a2e2a74391b9b170a4bb726,
        type: 3}
    - time: 0.5714286
      value: {fileID: 7788287979965792003, guid: 67b6a7401a2e2a74391b9b170a4bb726,
        type: 3}
    - time: 0.64285713
      value: {fileID: -5876230404456235001, guid: 67b6a7401a2e2a74391b9b170a4bb726,
        type: 3}
    - time: 0.71428573
      value: {fileID: -7061159883300251746, guid: 67b6a7401a2e2a74391b9b170a4bb726,
        type: 3}
    attribute: m_Sprite
    path: 
    classID: 212
    script: {fileID: 0}
  m_SampleRate: 14
  m_WrapMode: 0
  m_Bounds:
    m_Center: {x: 0, y: 0, z: 0}
    m_Extent: {x: 0, y: 0, z: 0}
  m_ClipBindingConstant:
    genericBindings:
    - serializedVersion: 2
      path: 0
      attribute: 0
      script: {fileID: 0}
      typeID: 212
      customType: 23
      isPPtrCurve: 1
    pptrCurveMapping:
    - {fileID: 5986030973748356752, guid: 67b6a7401a2e2a74391b9b170a4bb726, type: 3}
    - {fileID: -5600206312213581617, guid: 67b6a7401a2e2a74391b9b170a4bb726, type: 3}
    - {fileID: 3815954189206336483, guid: 67b6a7401a2e2a74391b9b170a4bb726, type: 3}
    - {fileID: -3690502768834906923, guid: 67b6a7401a2e2a74391b9b170a4bb726, type: 3}
    - {fileID: -49130668184793455, guid: 67b6a7401a2e2a74391b9b170a4bb726, type: 3}
    - {fileID: -2330519403281856691, guid: 67b6a7401a2e2a74391b9b170a4bb726, type: 3}
    - {fileID: -4796932125324312052, guid: 67b6a7401a2e2a74391b9b170a4bb726, type: 3}
    - {fileID: 4348620978117878488, guid: 67b6a7401a2e2a74391b9b170a4bb726, type: 3}
    - {fileID: 7788287979965792003, guid: 67b6a7401a2e2a74391b9b170a4bb726, type: 3}
    - {fileID: -5876230404456235001, guid: 67b6a7401a2e2a74391b9b170a4bb726, type: 3}
    - {fileID: -7061159883300251746, guid: 67b6a7401a2e2a74391b9b170a4bb726, type: 3}
  m_AnimationClipSettings:
    serializedVersion: 2
    m_AdditiveReferencePoseClip: {fileID: 0}
    m_AdditiveReferencePoseTime: 0
    m_StartTime: 0
    m_StopTime: 0.7857143
    m_OrientationOffsetY: 0
    m_Level: 0
    m_CycleOffset: 0
    m_HasAdditiveReferencePose: 0
    m_LoopTime: 0
    m_LoopBlend: 0
    m_LoopBlendOrientation: 0
    m_LoopBlendPositionY: 0
    m_LoopBlendPositionXZ: 0
    m_KeepOriginalOrientation: 0
    m_KeepOriginalPositionY: 1
    m_KeepOriginalPositionXZ: 0
    m_HeightFromFeet: 0
    m_Mirror: 0
  m_EditorCurves: []
  m_EulerEditorCurves: []
  m_HasGenericRootTransform: 0
  m_HasMotionFloatCurves: 0
  m_Events: []
