%YAML 1.1
%TAG !u! tag:unity3d.com,2011:
--- !u!1 &1721111071429200776
GameObject:
  m_ObjectHideFlags: 0
  m_CorrespondingSourceObject: {fileID: 0}
  m_PrefabInstance: {fileID: 0}
  m_PrefabAsset: {fileID: 0}
  serializedVersion: 6
  m_Component:
  - component: {fileID: 1721111071429200778}
  - component: {fileID: 1721111071429200779}
  m_Layer: 0
  m_Name: GameManager
  m_TagString: Untagged
  m_Icon: {fileID: 0}
  m_NavMeshLayer: 0
  m_StaticEditorFlags: 0
  m_IsActive: 1
--- !u!4 &1721111071429200778
Transform:
  m_ObjectHideFlags: 0
  m_CorrespondingSourceObject: {fileID: 0}
  m_PrefabInstance: {fileID: 0}
  m_PrefabAsset: {fileID: 0}
  m_GameObject: {fileID: 1721111071429200776}
  m_LocalRotation: {x: 0, y: 0, z: 0, w: 1}
  m_LocalPosition: {x: 0, y: 0, z: 0}
  m_LocalScale: {x: 1, y: 1, z: 1}
  m_Children: []
  m_Father: {fileID: 0}
  m_RootOrder: 0
  m_LocalEulerAnglesHint: {x: 0, y: 0, z: 0}
--- !u!114 &1721111071429200779
MonoBehaviour:
  m_ObjectHideFlags: 0
  m_CorrespondingSourceObject: {fileID: 0}
  m_PrefabInstance: {fileID: 0}
  m_PrefabAsset: {fileID: 0}
  m_GameObject: {fileID: 1721111071429200776}
  m_Enabled: 1
  m_EditorHideFlags: 0
  m_Script: {fileID: 11500000, guid: c8bb31434cd00804db00f2ea7ac36f6b, type: 3}
  m_Name: 
  m_EditorClassIdentifier: 
  roundsToWin: 3
  roundStartDelay: 3
  roundEndDelay: 3
  startingEnemies: 5
  enemiesPerRound: 5
  bossPerRound: 1
  delayBetweenSpawns: 2
  spawnOffset: 15
  fighter1: {fileID: 6297099881021966192, guid: 7ec23599c26bf1e4594a97df3a3fc2d5,
    type: 3}
  boss1: {fileID: 4623671980120049394, guid: 25f1a8757b245d449b43939a5350eaf6, type: 3}
  fighter2: {fileID: 2142117344700911069, guid: 3a4b75428393ed341ac93a07aa052ca5,
    type: 3}
  boss2: {fileID: 3779022881102020726, guid: b388c1c4ee344a2479af0bf4e98ce4b4, type: 3}
  fighter3: {fileID: 6650388678837778497, guid: 248457d33cf12624c840c773d47fa20a,
    type: 3}
  boss3: {fileID: 7144869511717917945, guid: 8a7d4679ebe32e64d9d4e9b59ad5df3a, type: 3}
  roundStartText: {fileID: 0}
  roundClearText: {fileID: 0}
  WinMenu: {fileID: 0}
